…
### Data Wrangling with DataFrames

Data wrangling is the pre-processing of your data to get it into the form you need for the modelling or analysis you intend to do with it. This can include many steps. DataFrames has a rich feature set to support you in this. We'll look at several examples here, but if you are going to be doing this type of work often, save yourself a lot of page-turning and download, print and laminate a copy of the [**Data Wrangling with DataFrames.jl Cheat Sheet**](https://www.ahsmart.com/assets/pages/data-wrangling-with-data-frames-jl-cheat-sheet/DataFramesCheatSheet_v1.x_rev1.pdf)

We start off by creating a dataset to work with:

```julia
df = DataFrame(X = 1:3:1500, Y = repeat(1:100, outer=5), Z = repeat(1:100, inner=5)
# 500×3 DataFrame
#  Row │ X      Y      Z     
#      │ Int64  Int64  Int64 
# ─────┼─────────────────────
#    1 │     1      1      1 
#    2 │     4      2      1 
#    3 │     7      3      1 
#    4 │    10      4      1 
#    5 │    13      5      1 
#    6 │    16      6      2 
#    7 │    19      7      2 
#    8 │    22      8      2 
#    9 │    25      9      2 
#   ⋮  │   ⋮      ⋮      ⋮   
#  492 │  1474     92     99 
#  493 │  1477     93     99
#  494 │  1480     94     99
#  495 │  1483     95     99
#  496 │  1486     96    100
#  497 │  1489     97    100
#  498 │  1492     98    100
#  499 │  1495     99    100
#  500 │  1498    100    100
#            482 rows omitted
…
ncol(df)
# 6
```

#### Selecting and Transforming Data

##### Selecting Columns
In the introductory section, we selected specific rows and column based on their indices. You can also select columns based on their names:

```julia
select(df, [:X, :Z])
# 500×2 DataFrame     
#  Row │ X      Z     
#      │ Int64  Int64 
# ─────┼──────────────
#    1 │     1      1
#    2 │     4      1
#    3 │     7      1
#   ⋮  │   ⋮      ⋮
#  498 │  1492    100
#  499 │  1495    100
#  500 │  1498    100
#     494 rows omitted
```

There are also selector function to allow for selection of ranges of columns:

- `Not()`: Select all the columns expect the specified one(s)
- `Between()`: Select all column starting with the first specified column and ending with the second. You can use names or indices to specify the columns
- `Cols()`: Use this to combine other selector functions
- `All()`: Select all columns - same as specifying `:`

**Examples:**

In the previous example we selected columns `X` and `Z`, which is the same as selecting everything expect `Y`:

```julia
select(df, Not(:Y))
# 500×2 DataFrame
#  Row │ X      Z     
#      │ Int64  Int64 
# ─────┼──────────────
#    1 │     1      1
#    2 │     4      1
#    3 │     7      1
#   ⋮  │   ⋮      ⋮
#  498 │  1492    100
#  499 │  1495    100
#  500 │  1498    100
#     494 rows omitted
```
We only passed a single symbol to `Not`, but could also pass an array of symbols to exclude multiple columns.

To make things more interesting, we can first add a few more columns:

```julia
df.A = 2 .* df.X
df.B = df.Y .+ df.Z
df.C = df.Z .^ 2
df
# 500×6 DataFrame
#  Row │ X      Y      Z      A      B      C     
#      │ Int64  Int64  Int64  Int64  Int64  Int64 
# ─────┼──────────────────────────────────────────
#    1 │     1      1      1      2      2      1
#    2 │     4      2      1      8      3      1
#    3 │     7      3      1     14      4      1
#   ⋮  │   ⋮      ⋮      ⋮      ⋮      ⋮      ⋮
#  498 │  1492     98    100   2984    198  10000
#  499 │  1495     99    100   2990    199  10000
#  500 │  1498    100    100   2996    200  10000
#                                 494 rows omitted
```

```julia
select(df, Cols(:A, Between(:X, :Z)))
# 500×4 DataFrame
#  Row │ A      X      Y      Z     
#      │ Int64  Int64  Int64  Int64 
# ─────┼────────────────────────────
#    1 │     2      1      1      1
#    2 │     8      4      2      1
#    3 │    14      7      3      1
#   ⋮  │   ⋮      ⋮      ⋮      ⋮
#  498 │  2984   1492     98    100
#  499 │  2990   1495     99    100
#  500 │  2996   1498    100    100
#                   494 rows omitted
```
 Here we used `Cols` to combine selecting column `A` and all columns from `X` to `Z`. This also changed the order of the columns.

We used the `select` function to do the selections, but could as easily have used the normal array-type notation:

```julia
df[:, Cols(:A, Between(:X, :Z))]
# 500×4 DataFrame
#  Row │ A      X      Y      Z     
#      │ Int64  Int64  Int64  Int64 
# ─────┼────────────────────────────
#    1 │     2      1      1      1
#    2 │     8      4      2      1
#    3 │    14      7      3      1
#   ⋮  │   ⋮      ⋮      ⋮      ⋮
#  498 │  2984   1492     98    100
#  499 │  2990   1495     99    100
#  500 │  2996   1498    100    100
#                   494 rows omitted
```

To permanently change the DataFrame, either assign the returned result to the same variable, or use the mutating version of `select()`: `select!()`.

```julia
df = select(df, Cols(:A, Between(:X, :Z)))
df
# 500×4 DataFrame
#  Row │ A      X      Y      Z     
#      │ Int64  Int64  Int64  Int64 
# ─────┼────────────────────────────
#    1 │     2      1      1      1
#    2 │     8      4      2      1
#    3 │    14      7      3      1
#   ⋮  │   ⋮      ⋮      ⋮      ⋮
#  498 │  2984   1492     98    100
#  499 │  2990   1495     99    100
#  500 │  2996   1498    100    100
#                   494 rows omitted
```

or

```julia
select!(df, Cols(:A, Between(:X, :Z)))
# 500×4 DataFrame
#  Row │ A      X      Y      Z     
#      │ Int64  Int64  Int64  Int64 
# ─────┼────────────────────────────
#    1 │     2      1      1      1
#    2 │     8      4      2      1 Da
#    3 │    14      7      3      1
#   ⋮  │   ⋮      ⋮      ⋮      ⋮
#  498 │  2984   1492     98    100
#  499 │  2990   1495     99    100
#  500 │  2996   1498    100    100
#                   494 rows omitted
```
…
It may also be useful to sort the data according to specified columns:

```julia
sort(df, :Y)
# 500×6 DataFrame
#  Row │ X      Y      Z      A      B      C     
#      │ Int64  Int64  Int64  Int64  Int64  Int64 
# ─────┼──────────────────────────────────────────
#    1 │     1      1      1      2      2      1
#    2 │   301      1     21    602     22    441
#    3 │   601      1     41   1202     42   1681
#    4 │   901      1     61   1802     62   3721
#    5 │  1201      1     81   2402     82   6561
#   ⋮  │   ⋮      ⋮      ⋮      ⋮      ⋮      ⋮
#  497 │   598    100     40   1196    140   1600
#  498 │   898    100     60   1796    160   3600
#  499 │  1198    100     80   2396    180   6400
#  500 │  1498    100    100   2996    200  10000
#                                 491 rows omitted

sort(df, [:Y, :B])
# 500×6 DataFrame
#  Row │ X      Y      Z      A      B      C
#      │ Int64  Int64  Int64  Int64  Int64  Int64
# ─────┼──────────────────────────────────────────
#    1 │     1      1      1      2      2      1
#    2 │   301      1     21    602     22    441
#    3 │   601      1     41   1202     42   1681
#    4 │   901      1     61   1802     62   3721
#    5 │  1201      1     81   2402     82   6561
#   ⋮  │   ⋮      ⋮      ⋮      ⋮      ⋮      ⋮
#  497 │   598    100     40   1196    140   1600
#  498 │   898    100     60   1796    160   3600
#  499 │  1198    100     80   2396    180   6400
#  500 │  1498    100    100   2996    200  10000
#                                 491 rows omitted
```
…
df
500×7 DataFrame
 Row │ X      Y      Z      A      B      C      BdivC     
     │ Int64  Int64  Int64  Int64  Int64  Int64  Float64   
─────┼─────────────────────────────────────────────────────
   1 │     1      1      1      2      2      1  2.0
   2 │     4      2      1      8      3      1  3.0
   3 │     7      3      1     14      4      1  4.0
   4 │    10      4      1     20      5      1  5.0
   5 │    13      5      1     26      6      1  6.0
  ⋮  │   ⋮      ⋮      ⋮      ⋮      ⋮      ⋮        ⋮
 497 │  1489     97    100   2978    197  10000  0.0197
 498 │  1492     98    100   2984    198  10000  0.0198
 499 │  1495     99    100   2990    199  10000  0.0199
 500 │  1498    100    100   2996    200  10000  0.02
                                           491 rows omitted
```

In order to apply functions across rows, we need to use some of the built-in functions of DataFrames, `select` and `transform`, along with `ByRow`.

The basic syntax is: 

`select(df, <array of columns to select>)`
`select(df, <array of columns to select>, <array of columns to pass to function> => <function> => <name(s) of column(s) to hold result>)`
`select(df, AsTable(:) => <function> => <name(s) of column(s) to hold result>)` # pass the entire table to the function

Some examples:

```julia

select(df, :X, :X => cumsum => :cumX) # Put the cumulative sum of X in column cumX
# 500×2 DataFrame
#  Row │ X      cumX   
#      │ Int64  Int64  
# ─────┼───────────────
#    1 │     1       1
#    2 │     4       5
#    3 │     7      12
#    4 │    10      22
#    5 │    13      35
#   ⋮  │   ⋮      ⋮
#  497 │  1489  370265
#  498 │  1492  371757
#  499 │  1495  373252
#  500 │  1498  374750
#      491 rows omitted

select(df, [:X, :Y], [:X, :Y] => ByRow((x, y) -> sin(x)*cos(y)) => :sinXcosY) # Put the value of sin(X)*cos*(Y) in column sinXcosY
# 500×3 DataFrame
#  Row │ X      Y      sinXcosY    
#      │ Int64  Int64  Float64     
# ─────┼───────────────────────────
#    1 │     1      1   0.454649
#    2 │     4      2   0.314941
#    3 │     7      3  -0.650412
#    4 │    10      4   0.355596
#    5 │    13      5   0.119185
#   ⋮  │   ⋮      ⋮         ⋮
#  497 │  1489     97   0.106082
#  498 │  1492     98  -0.207859
#  499 │  1495     99  -0.0154374
#  500 │  1498    100   0.443124
#                  491 rows omitted

select(df, AsTable(:) => ByRow(extrema) => [:min, :max]) # Find the smallest and largest value in each row
# 500×2 DataFrame
#  Row │ min    max   
#      │ Int64  Int64 
# ─────┼──────────────
#    1 │     1      2
#    2 │     1      8
#    3 │     1     14
#    4 │     1     20
#    5 │     1     26
#   ⋮  │   ⋮      ⋮
#  497 │    97  10000
#  498 │    98  10000
#  499 │    99  10000
#  500 │   100  10000
#     491 rows omitted
```

In each case, we used `select` and it only returned the specified columns. If we instead call `transform`, the entire DataFrame is returned, as well as any new columns added in the calculations, e.g.

```julia
transform(df, AsTable(:) => ByRow(extrema) => [:min, :max])
# 500×8 DataFrame
#  Row │ X      Y      Z      A      B      C      min    max   
#      │ Int64  Int64  Int64  Int64  Int64  Int64  Int64  Int64 
# ─────┼────────────────────────────────────────────────────────
#    1 │     1      1      1      2      2      1      1      2
#    2 │     4      2      1      8      3      1      1      8
#    3 │     7      3      1     14      4      1      1     14
#    4 │    10      4      1     20      5      1      1     20
#    5 │    13      5      1     26      6      1      1     26
#   ⋮  │   ⋮      ⋮      ⋮      ⋮      ⋮      ⋮      ⋮      ⋮
#  497 │  1489     97    100   2978    197  10000     97  10000
#  498 │  1492     98    100   2984    198  10000     98  10000
#  499 │  1495     99    100   2990    199  10000     99  10000
#  500 │  1498    100    100   2996    200  10000    100  10000
#                                               491 rows omitted
…
